cycle              1000002:bit_error_cnt[          0]=               46887
cycle              1000002:bit_error_cnt[          1]=               46491
cycle              1000002:bit_error_cnt[          2]=               46473
cycle              1000002:bit_error_cnt[          3]=               46458
cycle              1000002:bit_error_cnt[          4]=               46482
cycle              1000002:bit_error_cnt[          5]=               46471
cycle              1000002:bit_error_cnt[          6]=               46487
cycle              1000002:bit_error_cnt[          7]=               46476
cycle              1000002:bit_error_cnt[          8]=               46482
cycle              1000002:bit_error_cnt[          9]=               46463
cycle              1000002:bit_error_cnt[         10]=               46484
cycle              1000002:bit_error_cnt[         11]=               46467
cycle              1000002:bit_error_cnt[         12]=               46456
cycle              1000002:bit_error_cnt[         13]=               46464
cycle              1000002:bit_error_cnt[         14]=               46472
cycle              1000002:bit_error_cnt[         15]=               46476
cycle              1000002:bit_error_cnt[         16]=               46419
cycle              1000002:bit_error_cnt[         17]=               46243
cycle              1000002:bit_error_cnt[         18]=               45792
cycle              1000002:bit_error_cnt[         19]=               44435
cycle              1000002:bit_error_cnt[         20]=               41861
cycle              1000002:bit_error_cnt[         21]=               37365
cycle              1000002:bit_error_cnt[         22]=               29584
cycle              1000002:bit_error_cnt[         23]=               21907
cycle              1000002:bit_error_cnt[         24]=               14352
cycle              1000002:bit_error_cnt[         25]=                8289
cycle              1000002:bit_error_cnt[         26]=                6138
cycle              1000002:bit_error_cnt[         27]=                3768
cycle              1000002:bit_error_cnt[         28]=                2349
cycle              1000002:bit_error_cnt[         29]=                1764
cycle              1000002:bit_error_cnt[         30]=                 918
cycle              1000002:bit_error_cnt[         31]=                 295
