cycle              1000002:bit_error_cnt[          0]=                  48
cycle              1000002:bit_error_cnt[          1]=                  28
cycle              1000002:bit_error_cnt[          2]=                  27
cycle              1000002:bit_error_cnt[          3]=                  26
cycle              1000002:bit_error_cnt[          4]=                  27
cycle              1000002:bit_error_cnt[          5]=                  24
cycle              1000002:bit_error_cnt[          6]=                  20
cycle              1000002:bit_error_cnt[          7]=                  21
cycle              1000002:bit_error_cnt[          8]=                  20
cycle              1000002:bit_error_cnt[          9]=                  21
cycle              1000002:bit_error_cnt[         10]=                  22
cycle              1000002:bit_error_cnt[         11]=                  16
cycle              1000002:bit_error_cnt[         12]=                  17
cycle              1000002:bit_error_cnt[         13]=                  19
cycle              1000002:bit_error_cnt[         14]=                  18
cycle              1000002:bit_error_cnt[         15]=                  16
cycle              1000002:bit_error_cnt[         16]=                  19
cycle              1000002:bit_error_cnt[         17]=                  16
cycle              1000002:bit_error_cnt[         18]=                  12
cycle              1000002:bit_error_cnt[         19]=                  16
cycle              1000002:bit_error_cnt[         20]=                  16
cycle              1000002:bit_error_cnt[         21]=                  15
cycle              1000002:bit_error_cnt[         22]=                  15
cycle              1000002:bit_error_cnt[         23]=                  10
cycle              1000002:bit_error_cnt[         24]=                  10
cycle              1000002:bit_error_cnt[         25]=                   6
cycle              1000002:bit_error_cnt[         26]=                   6
cycle              1000002:bit_error_cnt[         27]=                   3
cycle              1000002:bit_error_cnt[         28]=                   1
cycle              1000002:bit_error_cnt[         29]=                   0
cycle              1000002:bit_error_cnt[         30]=                   0
cycle              1000002:bit_error_cnt[         31]=                   0
