cycle                 1002:bit_error_cnt[          0]=                1002
cycle                 1002:bit_error_cnt[          1]=                  19
cycle                 1002:bit_error_cnt[          2]=                  20
cycle                 1002:bit_error_cnt[          3]=                  22
cycle                 1002:bit_error_cnt[          4]=                  21
cycle                 1002:bit_error_cnt[          5]=                  14
cycle                 1002:bit_error_cnt[          6]=                  20
cycle                 1002:bit_error_cnt[          7]=                  15
cycle                 1002:bit_error_cnt[          8]=                  25
cycle                 1002:bit_error_cnt[          9]=                  21
cycle                 1002:bit_error_cnt[         10]=                  24
cycle                 1002:bit_error_cnt[         11]=                  22
cycle                 1002:bit_error_cnt[         12]=                  17
cycle                 1002:bit_error_cnt[         13]=                  20
cycle                 1002:bit_error_cnt[         14]=                  17
cycle                 1002:bit_error_cnt[         15]=                  28
cycle                 1002:bit_error_cnt[         16]=                  21
cycle                 1002:bit_error_cnt[         17]=                  21
cycle                 1002:bit_error_cnt[         18]=                  25
cycle                 1002:bit_error_cnt[         19]=                  21
cycle                 1002:bit_error_cnt[         20]=                  20
cycle                 1002:bit_error_cnt[         21]=                  21
cycle                 1002:bit_error_cnt[         22]=                  20
cycle                 1002:bit_error_cnt[         23]=                 201
cycle                 1002:bit_error_cnt[         24]=                 205
cycle                 1002:bit_error_cnt[         25]=                 201
cycle                 1002:bit_error_cnt[         26]=                 207
cycle                 1002:bit_error_cnt[         27]=                 207
cycle                 1002:bit_error_cnt[         28]=                 206
cycle                 1002:bit_error_cnt[         29]=                 203
cycle                 1002:bit_error_cnt[         30]=                 204
cycle                 1002:bit_error_cnt[         31]=                 211
