cycle              1000002:bit_error_cnt[          0]=               44317
cycle              1000002:bit_error_cnt[          1]=               44000
cycle              1000002:bit_error_cnt[          2]=               43560
cycle              1000002:bit_error_cnt[          3]=               43008
cycle              1000002:bit_error_cnt[          4]=               42212
cycle              1000002:bit_error_cnt[          5]=               41262
cycle              1000002:bit_error_cnt[          6]=               40009
cycle              1000002:bit_error_cnt[          7]=               38723
cycle              1000002:bit_error_cnt[          8]=               37240
cycle              1000002:bit_error_cnt[          9]=               35788
cycle              1000002:bit_error_cnt[         10]=               34468
cycle              1000002:bit_error_cnt[         11]=               33542
cycle              1000002:bit_error_cnt[         12]=               31475
cycle              1000002:bit_error_cnt[         13]=               28855
cycle              1000002:bit_error_cnt[         14]=               26047
cycle              1000002:bit_error_cnt[         15]=               24452
cycle              1000002:bit_error_cnt[         16]=               21651
cycle              1000002:bit_error_cnt[         17]=               18414
cycle              1000002:bit_error_cnt[         18]=               15761
cycle              1000002:bit_error_cnt[         19]=               14179
cycle              1000002:bit_error_cnt[         20]=               10822
cycle              1000002:bit_error_cnt[         21]=                6833
cycle              1000002:bit_error_cnt[         22]=                4358
cycle              1000002:bit_error_cnt[         23]=                3517
cycle              1000002:bit_error_cnt[         24]=                2380
cycle              1000002:bit_error_cnt[         25]=                1309
cycle              1000002:bit_error_cnt[         26]=                 928
cycle              1000002:bit_error_cnt[         27]=                 541
cycle              1000002:bit_error_cnt[         28]=                 318
cycle              1000002:bit_error_cnt[         29]=                 187
cycle              1000002:bit_error_cnt[         30]=                 166
cycle              1000002:bit_error_cnt[         31]=                  26
