cycle              1000002:bit_error_cnt[          0]=               47483
cycle              1000002:bit_error_cnt[          1]=               45823
cycle              1000002:bit_error_cnt[          2]=               45823
cycle              1000002:bit_error_cnt[          3]=               45796
cycle              1000002:bit_error_cnt[          4]=               45827
cycle              1000002:bit_error_cnt[          5]=               45814
cycle              1000002:bit_error_cnt[          6]=               45840
cycle              1000002:bit_error_cnt[          7]=               45792
cycle              1000002:bit_error_cnt[          8]=               45810
cycle              1000002:bit_error_cnt[          9]=               45862
cycle              1000002:bit_error_cnt[         10]=               45798
cycle              1000002:bit_error_cnt[         11]=               45813
cycle              1000002:bit_error_cnt[         12]=               45869
cycle              1000002:bit_error_cnt[         13]=               45829
cycle              1000002:bit_error_cnt[         14]=               45820
cycle              1000002:bit_error_cnt[         15]=               45818
cycle              1000002:bit_error_cnt[         16]=               45803
cycle              1000002:bit_error_cnt[         17]=               45873
cycle              1000002:bit_error_cnt[         18]=               45806
cycle              1000002:bit_error_cnt[         19]=               45746
cycle              1000002:bit_error_cnt[         20]=               45290
cycle              1000002:bit_error_cnt[         21]=               44489
cycle              1000002:bit_error_cnt[         22]=               40971
cycle              1000002:bit_error_cnt[         23]=               35770
cycle              1000002:bit_error_cnt[         24]=               30272
cycle              1000002:bit_error_cnt[         25]=               27014
cycle              1000002:bit_error_cnt[         26]=               21258
cycle              1000002:bit_error_cnt[         27]=               13827
cycle              1000002:bit_error_cnt[         28]=                7567
cycle              1000002:bit_error_cnt[         29]=                4610
cycle              1000002:bit_error_cnt[         30]=                3702
cycle              1000002:bit_error_cnt[         31]=                1378
