cycle              1000002:bit_error_cnt[          0]=             1000002
cycle              1000002:bit_error_cnt[          1]=               23308
cycle              1000002:bit_error_cnt[          2]=               23361
cycle              1000002:bit_error_cnt[          3]=               23510
cycle              1000002:bit_error_cnt[          4]=               23304
cycle              1000002:bit_error_cnt[          5]=               23299
cycle              1000002:bit_error_cnt[          6]=               23324
cycle              1000002:bit_error_cnt[          7]=               23560
cycle              1000002:bit_error_cnt[          8]=               23370
cycle              1000002:bit_error_cnt[          9]=               23423
cycle              1000002:bit_error_cnt[         10]=               23354
cycle              1000002:bit_error_cnt[         11]=               23331
cycle              1000002:bit_error_cnt[         12]=               23320
cycle              1000002:bit_error_cnt[         13]=               23297
cycle              1000002:bit_error_cnt[         14]=               23177
cycle              1000002:bit_error_cnt[         15]=               23235
cycle              1000002:bit_error_cnt[         16]=               23199
cycle              1000002:bit_error_cnt[         17]=               23207
cycle              1000002:bit_error_cnt[         18]=               23062
cycle              1000002:bit_error_cnt[         19]=               22937
cycle              1000002:bit_error_cnt[         20]=               22243
cycle              1000002:bit_error_cnt[         21]=               21255
cycle              1000002:bit_error_cnt[         22]=               19595
cycle              1000002:bit_error_cnt[         23]=              218652
cycle              1000002:bit_error_cnt[         24]=              218714
cycle              1000002:bit_error_cnt[         25]=              218690
cycle              1000002:bit_error_cnt[         26]=              218727
cycle              1000002:bit_error_cnt[         27]=              218792
cycle              1000002:bit_error_cnt[         28]=              218654
cycle              1000002:bit_error_cnt[         29]=              218811
cycle              1000002:bit_error_cnt[         30]=              218817
cycle              1000002:bit_error_cnt[         31]=              218569
