cycle              1000002:bit_error_cnt[          0]=               46886
cycle              1000002:bit_error_cnt[          1]=               46480
cycle              1000002:bit_error_cnt[          2]=               46471
cycle              1000002:bit_error_cnt[          3]=               46468
cycle              1000002:bit_error_cnt[          4]=               46489
cycle              1000002:bit_error_cnt[          5]=               46467
cycle              1000002:bit_error_cnt[          6]=               46487
cycle              1000002:bit_error_cnt[          7]=               46479
cycle              1000002:bit_error_cnt[          8]=               46496
cycle              1000002:bit_error_cnt[          9]=               46479
cycle              1000002:bit_error_cnt[         10]=               46480
cycle              1000002:bit_error_cnt[         11]=               46481
cycle              1000002:bit_error_cnt[         12]=               46459
cycle              1000002:bit_error_cnt[         13]=               46469
cycle              1000002:bit_error_cnt[         14]=               46476
cycle              1000002:bit_error_cnt[         15]=               46457
cycle              1000002:bit_error_cnt[         16]=               46350
cycle              1000002:bit_error_cnt[         17]=               46042
cycle              1000002:bit_error_cnt[         18]=               45284
cycle              1000002:bit_error_cnt[         19]=               43548
cycle              1000002:bit_error_cnt[         20]=               40518
cycle              1000002:bit_error_cnt[         21]=               35681
cycle              1000002:bit_error_cnt[         22]=               28241
cycle              1000002:bit_error_cnt[         23]=               21100
cycle              1000002:bit_error_cnt[         24]=               14311
cycle              1000002:bit_error_cnt[         25]=                8647
cycle              1000002:bit_error_cnt[         26]=                5562
cycle              1000002:bit_error_cnt[         27]=                3395
cycle              1000002:bit_error_cnt[         28]=                2032
cycle              1000002:bit_error_cnt[         29]=                1567
cycle              1000002:bit_error_cnt[         30]=                 980
cycle              1000002:bit_error_cnt[         31]=                 298
