cycle              1000002:bit_error_cnt[          0]=               46797
cycle              1000002:bit_error_cnt[          1]=               46579
cycle              1000002:bit_error_cnt[          2]=               46586
cycle              1000002:bit_error_cnt[          3]=               46571
cycle              1000002:bit_error_cnt[          4]=               46589
cycle              1000002:bit_error_cnt[          5]=               46578
cycle              1000002:bit_error_cnt[          6]=               46586
cycle              1000002:bit_error_cnt[          7]=               46595
cycle              1000002:bit_error_cnt[          8]=               46594
cycle              1000002:bit_error_cnt[          9]=               46563
cycle              1000002:bit_error_cnt[         10]=               46585
cycle              1000002:bit_error_cnt[         11]=               46573
cycle              1000002:bit_error_cnt[         12]=               46571
cycle              1000002:bit_error_cnt[         13]=               46567
cycle              1000002:bit_error_cnt[         14]=               46551
cycle              1000002:bit_error_cnt[         15]=               46454
cycle              1000002:bit_error_cnt[         16]=               46129
cycle              1000002:bit_error_cnt[         17]=               45415
cycle              1000002:bit_error_cnt[         18]=               43829
cycle              1000002:bit_error_cnt[         19]=               41404
cycle              1000002:bit_error_cnt[         20]=               37143
cycle              1000002:bit_error_cnt[         21]=               31289
cycle              1000002:bit_error_cnt[         22]=               23931
cycle              1000002:bit_error_cnt[         23]=               16651
cycle              1000002:bit_error_cnt[         24]=               11451
cycle              1000002:bit_error_cnt[         25]=                6512
cycle              1000002:bit_error_cnt[         26]=                4500
cycle              1000002:bit_error_cnt[         27]=                2690
cycle              1000002:bit_error_cnt[         28]=                1623
cycle              1000002:bit_error_cnt[         29]=                1085
cycle              1000002:bit_error_cnt[         30]=                 778
cycle              1000002:bit_error_cnt[         31]=                 171
